…
Warnings:
	Check duplicates: the dataset which consists of all records selected for any of the events defined by `events` contains
duplicate records with respect to `STUDYID`, `USUBJID`, and `LSTAVLDT`
ℹ Run `admiral::get_duplicates_dataset()` to access the duplicate records
--------------------------------------------------------------------------------
-                         Messages, Output, and Result                         -
--------------------------------------------------------------------------------
Messages:
	
Output:
	

Result:
	# A tibble: 306 × 43
	   STUDYID     USUBJID SUBJID RFSTDTC RFENDTC RFXSTDTC RFXENDTC RFICDTC RFPENDTC DTHDTC DTHFL SITEID BRTHDTC   AGE AGEU  SEX  
	   <chr>       <chr>   <chr>  <chr>   <chr>   <chr>    <chr>    <chr>   <chr>    <chr>  <chr> <chr>  <chr>   <dbl> <chr> <chr>
	 1 CDISCPILOT… 01-701… 1015   2014-0… 2014-0… 2014-01… 2014-07… <NA>    2014-07… <NA>   <NA>  701    1950-1…    63 YEARS F    
	 2 CDISCPILOT… 01-701… 1023   2012-0… 2012-0… 2012-08… 2012-09… <NA>    2013-02… <NA>   <NA>  701    1948-0…    64 YEARS M    
	 3 CDISCPILOT… 01-701… 1028   2013-0… 2014-0… 2013-07… 2014-01… <NA>    2014-01… <NA>   <NA>  701    1942-0…    71 YEARS M    
	 4 CDISCPILOT… 01-701… 1033   2014-0… 2014-0… 2014-03… 2014-03… <NA>    2014-09… <NA>   <NA>  701    1940-0…    74 YEARS M    
	 5 CDISCPILOT… 01-701… 1034   2014-0… 2014-1… 2014-07… 2014-12… <NA>    2014-12… <NA>   <NA>  701    1937-0…    77 YEARS F    
	 6 CDISCPILOT… 01-701… 1047   2013-0… 2013-0… 2013-02… 2013-03… <NA>    2013-07… <NA>   <NA>  701    1928-0…    85 YEARS F    
	 7 CDISCPILOT… 01-701… 1057   <NA>    <NA>    <NA>     <NA>     <NA>    2013-12… <NA>   <NA>  701    1954-1…    59 YEARS F    
	 8 CDISCPILOT… 01-701… 1097   2014-0… 2014-0… 2014-01… 2014-07… <NA>    2014-07… <NA>   <NA>  701    1945-1…    68 YEARS M    
	 9 CDISCPILOT… 01-701… 1111   2012-0… 2012-0… 2012-09… 2012-09… <NA>    2013-02… <NA>   <NA>  701    1931-0…    81 YEARS F    
	10 CDISCPILOT… 01-701… 1115   2012-1… 2013-0… 2012-11… 2013-01… <NA>    2013-05… <NA>   <NA>  701    1928-1…    84 YEARS M    
	# ℹ 296 more rows
	# ℹ 27 more variables: RACE <chr>, ETHNIC <chr>, ARMCD <chr>, ARM <chr>, ACTARMCD <chr>, ACTARM <chr>, COUNTRY <chr>,
	#   DMDTC <chr>, DMDY <dbl>, ARMNRS <chr>, ACTARMUD <chr>, COMPLT16 <chr>, COMPLT24 <chr>, COMPLT8 <chr>, EFFICACY <chr>,
	#   ITT <chr>, SAFETY <chr>, ITTFL <chr>, AGEGR9 <chr>, AGEGR9N <int>, TRTSDTM <dttm>, TRTSTMF <chr>, TRTEDTM <dttm>,
	#   TRTETMF <chr>, TRTSDT <date>, TRTEDT <date>, LSTAVLDT <date>
	# ℹ Use `print(n = ...)` to see more rows
…
