…
	indexing sdtm_ct.csv [=============================================================] 609.44MB/s, eta:  0s
	                                                                                                         

Result:
	# A tibble: 850 × 12
	   STUDYID      DOMAIN USUBJID          DSSEQ DSTERM DSDECOD DSCAT VISITNUM VISIT DSDTC DSSTDTC    DSSTDY
	   <chr>        <chr>  <chr>            <int> <chr>  <chr>   <chr> <chr>    <chr> <iso> <date>      <int>
	 1 CDISCPILOT01 DS     CDISCPILOT01-70…     1 Proto… COMPLE… DISP… 13       WEEK… 2014… 2014-07-02     NA
	 2 CDISCPILOT01 DS     CDISCPILOT01-70…     2 Final… Final … OTHE… 13       WEEK… 2014… 2014-07-02     NA
	 3 CDISCPILOT01 DS     CDISCPILOT01-70…     3 Rando… RANDOM… PROT… 3        BASE… 2014… 2014-01-02     NA
	 4 CDISCPILOT01 DS     CDISCPILOT01-70…     1 Adver… ADVERS… DISP… 5        WEEK… 2012… 2012-09-02     NA
	 5 CDISCPILOT01 DS     CDISCPILOT01-70…     2 Final… Final … OTHE… 5        WEEK… 2012… 2012-09-02     NA
	 6 CDISCPILOT01 DS     CDISCPILOT01-70…     3 Final… Final … OTHE… 201      RETR… 2013… 2013-02-18     NA
	 7 CDISCPILOT01 DS     CDISCPILOT01-70…     4 Rando… RANDOM… PROT… 3        BASE… 2012… 2012-08-05     NA
	 8 CDISCPILOT01 DS     CDISCPILOT01-70…     1 Proto… COMPLE… DISP… 13       WEEK… 2014… 2014-01-14     NA
	 9 CDISCPILOT01 DS     CDISCPILOT01-70…     2 Final… Final … OTHE… 13       WEEK… 2014… 2014-01-14     NA
	10 CDISCPILOT01 DS     CDISCPILOT01-70…     3 Rando… RANDOM… PROT… 3        BASE… 2013… 2013-07-19     NA
	# ℹ 840 more rows
	# ℹ Use `print(n = ...)` to see more rows
…
